<?xml version="1.0" encoding="UTF-8"?>
<svg width="25px" height="22px" viewBox="0 0 25 22" version="1.1" xmlns="http://www.w3.org/2000/svg" xmlns:xlink="http://www.w3.org/1999/xlink">
    <!-- Generator: Sketch 60.1 (88133) - https://sketch.com -->
    <title>Group 3</title>
    <desc>Created with Sketch.</desc>
    <defs>
        <polygon id="path-1" points="0.5 0.5 22.5 0.5 22.5 25.5 0.5 25.5"></polygon>
    </defs>
    <g id="Welcome" stroke="none" stroke-width="1" fill="none" fill-rule="evenodd">
        <g id="Dich-Vu-2" transform="translate(-490.000000, -4613.000000)">
            <g id="Group-3" transform="translate(502.500000, 4624.000000) rotate(-270.000000) translate(-502.500000, -4624.000000) translate(491.000000, 4611.000000)">
                <mask id="mask-2" fill="white">
                    <use xlink:href="#path-1"></use>
                </mask>
                <g id="Clip-2"></g>
                <path d="M13.0551528,3 L20.3938552,10.3546875 C20.6971464,10.659375 20.6971464,11.153125 20.3938552,11.4578125 L19.2938356,12.5609375 C18.9905445,12.865625 18.4971071,12.8640625 18.193816,12.559375 L13.0551528,7.396875 L13.0551528,23.15625 C13.0551528,23.5890625 12.7062894,23.9375 12.2772817,23.9375 L10.7215397,23.9375 C10.292532,23.9375 9.94366864,23.5890625 9.94366864,23.15625 L9.94366864,7.396875 L6.77404061,10.5828125 L4.80500545,12.559375 C4.50171432,12.8640625 4.00827693,12.8640625 3.7049858,12.559375 L2.60496616,11.4546875 C2.30167503,11.15 2.30167503,10.665625 2.60496616,10.3609375 L9.94366864,3 C9.94366864,3 10.8613993,2.0625 11.4994107,2.0625 C12.1374221,2.0625 13.0551528,3 13.0551528,3 M9.39837319,1.28125 L8.38792657,2.33125 L0.954936695,9.7984375 C0.348354435,10.4078125 0.348354435,11.396875 0.954936695,12.0078125 L3.15497598,14.2171875 C3.76155824,14.8265625 4.74686155,14.8265625 5.35501527,14.2171875 L8.38792657,11.1703125 L8.38792657,23.9375 C8.38792657,24.8015625 9.08408186,25.5 9.94366864,25.5 L13.0551528,25.5 C13.9147395,25.5 14.6108948,24.8015625 14.6108948,23.9375 L14.6108948,11.1703125 L17.6438061,14.2171875 C18.2519599,14.8265625 19.2372632,14.8265625 19.8438454,14.2171875 L22.0438847,12.0078125 C22.6520384,11.396875 22.6520384,10.4078125 22.0438847,9.7984375 L14.6108948,2.33125 L13.444874,1.2046875 C13.444874,1.2046875 12.8697209,0.5 11.4994107,0.5 C10.1291005,0.5 9.39837319,1.28125 9.39837319,1.28125" id="Fill-1" fill="#F7B500" mask="url(#mask-2)"></path>
            </g>
        </g>
    </g>
</svg>